"V1","V2","SubID","Date_of_Scan"
NA,NA,"PEDS007","20100801"
NA,NA,"PEDS007","20110903"
NA,NA,"PEDS007","20120908"
NA,NA,"PEDS007","20130907"
NA,NA,"PEDS009","20100713"
NA,NA,"PEDS010","20100722"
NA,NA,"PEDS011","20100812"
NA,NA,"PEDS012","20100813"
NA,NA,"PEDS012","20110902"
NA,NA,"PEDS012","20131101"
NA,NA,"PEDS013","20100831"
NA,NA,"PEDS013","20110905"
NA,NA,"PEDS013","20120821"
NA,NA,"PEDS013","20130826"
NA,NA,"PEDS014","20100831"
NA,NA,"PEDS014","20100927"
NA,NA,"PEDS014","20110823"
NA,NA,"PEDS014","20120825"
NA,NA,"PEDS014","20130903"
NA,NA,"PEDS015","20100901"
NA,NA,"PEDS015","20110812"
NA,NA,"PEDS016","20100901"
NA,NA,"PEDS017","20100902"
NA,NA,"PEDS018","20100908"
NA,NA,"PEDS019","20100909"
NA,NA,"PEDS020","20100917"
NA,NA,"PEDS021","20101017"
NA,NA,"PEDS021","20111023"
NA,NA,"PEDS021","20121202"
NA,NA,"PEDS021","20131204"
NA,NA,"PEDS022","20101010"
NA,NA,"PEDS022","20111216"
NA,NA,"PEDS022","20121102"
NA,NA,"PEDS022","20131101"
NA,NA,"PEDS023","20101011"
NA,NA,"PEDS024","20101019"
NA,NA,"PEDS025","20101019"
NA,NA,"PEDS026","20101026"
NA,NA,"PEDS027","20101106"
NA,NA,"PEDS027","20111209"
NA,NA,"PEDS027","20121209"
NA,NA,"PEDS028","20101109"
NA,NA,"PEDS029","20101110"
NA,NA,"PEDS030","20111107"
NA,NA,"PEDS030","20121212"
NA,NA,"PEDS031","20101116"
NA,NA,"PEDS031","20121107"
NA,NA,"PEDS031","20131029"
NA,NA,"PEDS032","20101116"
NA,NA,"PEDS033","20101120"
NA,NA,"PEDS034","20101209"
NA,NA,"PEDS034","20111220"
NA,NA,"PEDS034","20121221"
NA,NA,"PEDS034","20140106"
NA,NA,"PEDS035","20101221"
NA,NA,"PEDS036","20110105"
NA,NA,"PEDS038","20110115"
NA,NA,"PEDS038","20120204"
NA,NA,"PEDS038","20130111"
NA,NA,"PEDS039","20110121"
NA,NA,"PEDS039","20120120"
NA,NA,"PEDS039","20130122"
NA,NA,"PEDS040","20110124"
NA,NA,"PEDS040","20120201"
NA,NA,"PEDS040","20130129"
NA,NA,"PEDS042","20110129"
NA,NA,"PEDS043","20110201"
NA,NA,"PEDS043","20120207"
NA,NA,"PEDS043","20130204"
NA,NA,"PEDS044","20110202"
NA,NA,"PEDS045","20110208"
NA,NA,"PEDS046","20110211"
NA,NA,"PEDS046","20120324"
NA,NA,"PEDS047","20110214"
NA,NA,"PEDS048","20110217"
NA,NA,"PEDS049","20110217"
NA,NA,"PEDS049","20120301"
NA,NA,"PEDS051","20110224"
NA,NA,"PEDS052","20110301"
NA,NA,"PEDS053","20110308"
NA,NA,"PEDS053","20120316"
NA,NA,"PEDS053","20130311"
NA,NA,"PEDS054","20110310"
NA,NA,"PEDS055","20110311"
NA,NA,"PEDS056","20110318"
NA,NA,"PEDS056","20120331"
NA,NA,"PEDS056","20130308"
NA,NA,"PEDS057","20110322"
NA,NA,"PEDS058","20110418"
NA,NA,"PEDS059","20110420"
NA,NA,"PEDS059","20120712"
NA,NA,"PEDS060","20110604"
NA,NA,"PEDS061","20110604"
NA,NA,"PEDS062","20110609"
NA,NA,"PEDS062","20110610"
NA,NA,"PEDS064","20110615"
NA,NA,"PEDS065","20110621"
NA,NA,"PEDS066","20110627"
NA,NA,"PEDS066","20120711"
NA,NA,"PEDS066","20130724"
NA,NA,"PEDS067","20110630"
NA,NA,"PEDS068","20110705"
NA,NA,"PEDS069","20110707"
NA,NA,"PEDS069","20120723"
NA,NA,"PEDS069","20130718"
NA,NA,"PEDS070","20110711"
NA,NA,"PEDS072","20110801"
NA,NA,"PEDS073","20110802"
NA,NA,"PEDS074","20110803"
NA,NA,"PEDS076","20110808"
NA,NA,"PEDS077","20110809"
NA,NA,"PEDS078","20110819"
NA,NA,"PEDS079","20120810"
NA,NA,"PEDS079","20130806"
NA,NA,"PEDS080","20110824"
NA,NA,"PEDS081","20110831"
NA,NA,"PEDS082","20110831"
NA,NA,"PEDS082","20120818"
NA,NA,"PEDS082","20130815"
NA,NA,"PEDS083","20110902"
NA,NA,"PEDS084","20110903"
NA,NA,"PEDS085","20110906"
NA,NA,"PEDS085","20120820"
NA,NA,"PEDS086","20110906"
NA,NA,"PEDS086","20120823"
NA,NA,"PEDS086","20130730"
NA,NA,"PEDS087","20110929"
NA,NA,"PEDS089","20111014"
NA,NA,"PEDS089","20131025"
NA,NA,"PEDS090","20111027"
NA,NA,"PEDS091","20111028"
NA,NA,"PEDS092","20111111"
NA,NA,"PEDS093","20111111"
NA,NA,"PEDS094","20111201"
NA,NA,"PEDS095","20111203"
NA,NA,"PEDS096","20120127"
NA,NA,"PEDS097","20120204"
NA,NA,"PEDS097","20130215"
NA,NA,"PEDS098","20120217"
NA,NA,"PEDS102","20120730"
NA,NA,"PEDS103","20120731"
NA,NA,"PEDS104","20120817"
NA,NA,"PEDS105","20130114"
NA,NA,"PEDS106","20130117"
NA,NA,"PEDS107","20130118"
NA,NA,"PEDS108","20130215"
NA,NA,"PEDS109","20130228"
NA,NA,"PEDS110","20130323"
NA,NA,"PEDS111","20130325"
NA,NA,"PEDS112","20130326"
NA,NA,"PEDS113","20130326"
NA,NA,"PEDS114","20130328"
NA,NA,"PEDS115","20130404"
NA,NA,"PEDS116","20130412"
NA,NA,"PEDS117","20130426"
NA,NA,"PEDS119","20130517"
NA,NA,"PEDS120","20130517"
NA,NA,"PEDS121","20130520"
NA,NA,"PEDS122","20130520"
NA,NA,"PEDS123","20130530"
NA,NA,"PEDS124","20130613"
NA,NA,"PEDS125","20130614"
NA,NA,"PEDS126","20130620"
NA,NA,"PEDS127","20130717"
NA,NA,"PEDS128","20130909"
NA,NA,"PEDS129","20130824"
NA,NA,"PEDS130","20130816"
NA,NA,"PEDS131","20130816"
NA,NA,"PEDS132","20130824"
NA,NA,"PEDS133","20130904"
NA,NA,"PEDS134","20130919"
NA,NA,"PEDS135","20130921"
NA,NA,"PEDS136","20130924"
NA,NA,"PEDS137","20130927"
NA,NA,"PEDS138","20130928"
NA,NA,"PEDS139","20131026"
NA,NA,"PEDS140","20131102"
NA,NA,"PEDS141","20131106"
NA,NA,"PEDS142","20131108"
NA,NA,"PEDS143","20131122"
NA,NA,"PEDS144","20131212"
NA,NA,"PEDS145","20131212"
NA,NA,"PEDS146","20131213"
NA,NA,"PEDS147","20131220"
