"","U000","U001","U002","U003","U004","U005","U006","U007","U008","U009","U010","U011","U012","U013","U014","U015","U016","U017","U018","U019","U020","U021","U022","U023","U024","U025","U026","U027","U028","U029","U030","U031","U032","U033","U034","U035","U036","U037","U038","U039","U040","U041","U042","U043","U044","U045","U046","U047","U048","U049"
"1",5.07669818904474,-15.7302293654349,-4.80803183959921,-5.00378767200808,14.9542274573533,-0.838526986757869,18.7764733629004,-17.9196257082587,14.8433095856897,-16.8709269218104,1.0936608099946,13.0325739055521,4.4209476256301,8.70488148602458,-16.3887915898489,16.2673785176077,-11.9424608618876,1.82902131644096,28.7308571484029,8.28057937248074,-17.7596575204649,20.1701938075098,-10.9534601263115,5.67639575646402,-2.73482046543197,20.4707336344004,-14.3717692446269,8.01978422039294,18.6665191926669,-1.33372201091088,-20.6657431683212,28.3088569218922,-12.4230865109073,-2.14426004776854,-1.90196184959367,34.6071646771857,-5.56095087028776,-0.0741503801335584,-1.6708307658006,-2.99238876849116,13.2897806708416,1.55461508705364,-25.3414835831485,1.81726696107433,-1.58238878877929,1.59067558708938,-5.26840114026096,11.7995625653898,15.8568442671057,7.91015571733394
"2",0.777212939315569,-10.0545126752167,-11.6626378112626,2.38622683870258,1.54327800811615,10.9175305961265,-5.72175619923324,-16.4200148398656,10.7614262172784,3.17783318667692,0.754969784011512,7.88018462417426,-7.28076692348674,15.7132217665059,15.7226501508986,0.269882935168726,24.6786923925889,-19.6232121144536,13.1717802558465,-1.95084535045346,-11.5136140178413,-2.1937165297008,3.19658521839378,6.63178563555118,-17.8399934428343,-2.53506265659327,-7.44151431815941,-18.0359718560141,-4.75966637412313,11.975456429941,0.258651913780306,12.131926319345,3.71763194825757,-3.1506643559988,-10.6780865029089,5.53276675338808,2.79940650107134,-13.3641899853195,13.1813647532839,3.07607327023582,8.48815111550666,-6.85630130748324,13.3856152041693,12.8564833549382,-4.42437237365231,-20.9477149661684,2.84685916485146,-8.15707162707204,-16.1199865172426,-9.80104601000917
"3",-10.9290150475139,-3.25263882609401,-1.56496157759745,3.71507321441569,-9.82678608064209,4.14228852510023,-5.10563337069982,13.9806530237382,-8.54837389809208,-10.9795833880354,15.0901083213716,-1.42307123729008,-5.94612838212102,6.3569320138194,-9.61525564245169,-10.3775270826466,3.13453379756254,-12.3542749538313,-5.6075491738936,-6.8880286379986,4.41931500721545,0.988411640442975,-12.894562643184,-9.33935817808241,9.90937397064346,-21.4911016347793,-23.0383695861483,0.794960069541526,7.33516948621467,11.7420307216887,3.46084724951279,-10.4511791340954,2.38203121963907,-5.83079292387091,-15.3671623793735,5.05781887989202,-0.017876898847958,11.4807692149724,-8.41431269804002,-1.42392012042482,8.45872682959254,10.31659573411,-8.14964775190291,10.1553043037001,22.9544670360443,-5.31473436144583,13.8574761325088,-1.74860536054184,-1.44087983450066,9.11639954848047
"4",-8.77435327946439,4.76699618250651,3.56822689179538,-20.492523733062,-38.0107507210064,-10.2049591149919,-18.4732735473669,-7.90127761798269,-51.3684032157878,-7.73193799279175,-5.57376584190958,18.8501360523105,19.1996564388533,0.936576530781177,3.43809588031309,-4.67614703380211,-2.46759973988653,-9.25932498560073,29.2048718597943,-30.0601139914638,-9.38073557230567,-21.15227011475,19.3104883140469,-8.12488431257723,-8.13518971107347,-10.7388068168416,20.6618081734167,-3.43365082327887,-5.61025585872048,9.85601523018451,1.39916854828863,17.6225276451248,15.022696711005,5.61415528113389,-2.55047421493293,9.89442591679485,20.0330064166026,-6.87909377092351,3.5626189076406,-3.1500248231487,5.69889125050606,26.5085514933146,8.94335624869898,-0.405449779540599,-4.33908477338376,-41.083328883117,1.08582876987008,13.5712970687487,-9.50509099786873,-0.104455127665193
"5",14.5857658897119,-9.96087619793914,13.2139718643829,26.9163450953693,2.29368510124885,8.64944680714529,-0.691942121891163,14.8180427275315,-18.6972417012462,16.3589617166963,-10.8138768702529,-11.2232210436204,-11.2668967034187,-4.54717999690891,5.51553965440078,-27.4179896356418,2.69639051031964,-6.65935958873013,1.36149420344618,-9.63639561772669,21.016879578056,-18.0988747946571,-25.9993118478072,-2.68252474872593,-5.91771084570268,-8.33000277952541,1.32366971733768,-8.31067997127339,50.5568415788538,-8.02149814584913,-9.33418857580807,-16.5967617415773,-2.67529089587286,4.6751404031046,6.6683781536349,18.7230883656394,11.1661779731238,-7.23725464338878,-13.1493256807582,14.2499166587849,16.4486364358005,1.71142226738799,7.99446084298256,-15.5156914740074,9.6679500836774,-1.34079488062342,10.8221754428412,16.2666890119618,-3.19851084065813,-3.31259182567731
"6",11.1339069921559,0.827756365645866,-2.17657401943141,6.03351973217257,-12.0271671495403,10.7255585339864,0.13233014625426,-8.70826529155552,-9.24075356837513,-10.6185262487143,7.20714208893455,1.37822134999481,6.00070014839622,0.883506414248833,1.35699850126792,-13.1836238606686,-11.8848279353742,19.7055003237253,-35.051086337669,-8.44503719903102,-11.4071449161965,10.7507693278019,0.434918193344474,2.74397575158161,3.29287502788092,-3.93062810109509,-6.03551324337632,-1.71805459875953,0.540669153389257,13.1858117300125,3.44438208436108,-11.7742548378358,-5.38052378854047,0.538163566013719,11.3183901167946,4.83424456898738,9.7076746309956,-1.71842672664798,34.8227361381211,-5.42205795700471,11.9934721572591,-20.8948714375563,14.9142688043845,9.21688315302396,-16.6103898970613,2.7197474658681,16.1671791125906,-2.98749773662068,-3.5915578079384,2.4802697248361
"7",-3.41090880992323,3.25326670213629,10.1385296010175,7.92299977765625,-8.89646500268592,-4.05894070481956,3.64737282262831,19.815206129575,1.25093509341126,-4.74490330519815,-12.415573313765,26.0684821473114,-18.0810751257589,-1.05689123132077,6.51809650811416,25.7935339680596,-28.3510416114952,-10.9445516580553,16.0374173166615,1.13117714829973,7.9392237653166,-1.60655073733731,-10.7806362223313,-2.57950815965259,8.24260797274712,6.94323443207269,3.45312728359441,25.4008823922893,26.8850225751253,2.72289785820464,-11.4064333757252,-7.94362051011763,-3.68145028018639,1.89073996780443,17.4865668642002,-7.76689455059911,-7.01204764807791,10.8094996403193,-1.39207841126596,2.61339258989551,8.51991908020893,-0.778764682795546,-10.4258419570777,-17.5771838543199,2.54356300406614,-4.74734272431568,1.32441848746783,10.7905190807778,7.77490305181517,-5.19959967021719
"8",-12.6321423940314,-7.60628977782913,1.52551538838709,-16.2624090473108,-23.5916973332069,17.5152518125412,-16.0805371238696,-13.0772749509993,-25.2655874640181,16.184804078154,11.4172789994565,-3.18122858122584,-12.8973674708094,12.5116775770415,19.8170516144822,-18.8791857289325,17.0670679699579,-7.86910414583864,9.0180317871462,-12.4051699334284,11.5267893230989,17.4209143538482,-12.005924827371,-4.6584795065435,-14.2573975046422,-7.48218851630679,17.0067501747693,2.90531666300669,14.2044552089447,11.3083734315515,5.81426212775891,-7.43113178296203,-0.48359292898714,25.7003163110569,2.70505570113268,10.9715342026537,26.8960511712712,-9.67737979952106,8.75887476644242,4.93545393737932,16.4274621750747,-6.1524340365161,14.9756090595868,-0.925629793223748,20.5129006122014,-13.9530092696405,-6.09488530826106,-6.33490814466299,-2.85780100634915,-10.3146480319385
"9",0.252482017615637,-20.3977772259498,7.32263459307267,-6.00735129451497,-4.32190384797802,-0.282192551303533,26.0341868220329,13.4224249565152,16.966011393029,-10.6882736245832,-7.34373574268135,-8.57041996955887,13.3731443420033,-14.7247773839694,-16.3943903326086,-5.43178160296944,16.9224636583638,-6.36903560064674,20.0183979801833,2.18469269214058,8.83606663869391,-16.6143137938965,6.63017437370543,-20.7165850312815,11.5498074942924,4.64066850399695,3.88093195018936,3.68879044822184,19.1560826458255,2.38717207874776,10.9261591637439,13.6190043693478,2.00719445976878,7.66862882531674,-14.0972152088577,1.20493634758705,-10.0468834708759,-9.65714918689629,6.42617219309458,5.8620186246405,16.5053723039533,-17.7161319078845,-11.9632764471253,24.0557270935341,-0.524846360429495,-17.6606488068859,1.83766281165112,0.0758650463425177,4.50749612401471,12.5399861977272
"10",-8.23899733137396,-19.9476135683763,0.206329747333584,-8.00076460438015,-18.7330170822859,4.1103543715366,-17.5020571476797,-4.4845240184751,-0.93997338781485,7.27330661368483,6.50528481875767,-19.2846546703334,16.1200707165,16.4787047711371,8.03502168690763,-7.00129366103096,-11.7205999979364,-1.1026982573777,-10.9346582460698,0.106211997202441,-32.298878396365,-1.87134440845289,17.0378852274615,-0.0347571889131147,-10.7509469527394,-6.47166464736708,-4.71160721746892,-11.9844188120427,-4.08886024621675,-1.64524518577048,-0.247913259418237,-19.4677375702805,10.4765559164929,21.5636052722512,-4.43260963956403,12.1896356069043,26.7453130979266,1.70414062480522,-26.9453559521662,11.1507097154224,-7.93821663560653,-29.8558736897342,25.9388171551546,-0.756327565328206,11.9975404352626,13.2900880091361,-0.728386674703777,-14.1020613188733,-1.73107404389597,6.24613334535373
"11",24.4860172363774,3.44125841955857,-0.50820404418153,-2.99919163190055,8.37141909412762,25.4313934449662,14.9299013909062,3.58803747824261,6.49187920465251,33.3767425269011,-40.8643156241803,-6.72114924062933,-18.7323572084087,1.79455150433441,27.9207836156469,24.2438720236659,1.11179424240831,5.05170306587029,6.62512952636238,-31.5161512188959,11.6251399871628,2.28581679730189,3.90518346679473,-21.0192531024611,20.9596276987288,9.88436891998232,8.21919973158965,33.5087757631092,-20.5783218388503,-0.0988825295875962,16.2407644438074,3.7342324992264,-4.22202165720749,-6.95185340476576,0.598679444486104,-2.21457910181542,-37.6202638108438,-1.61566149343443,1.63561576168603,13.0295911724582,-4.95739549528385,19.1317442173844,10.9241014929573,-0.847382549302853,-1.26605817880284,-3.66088929425572,-0.839839092776117,3.42833528533199,10.8228316435117,-6.10046342460327
"12",26.6075282537326,7.24991805879101,-1.35627946317006,4.66160437729837,27.346984083545,1.47485646806835,5.90922228506184,-1.10506601902731,28.484700819089,0.193337489496195,-0.401954289988182,-10.4250920873086,11.9953934591766,-1.62666304287543,18.7522318418398,4.47880849465374,12.5960346097819,-6.97695152205816,-4.1927647742805,-3.91708889027098,7.59820430818801,-3.30661681339662,8.14889847780336,-13.0503905466044,15.2137570535251,-2.97058717120759,-9.28999248801383,10.2708261350746,5.25431722400682,-11.1671072190933,-6.10509322120141,0.739699076296087,1.09583400443791,14.5755581187267,-7.37359530434225,-23.0552329166231,-3.48763688048626,-1.43014828403759,14.8573939876781,14.5501547732531,-14.6149568592526,-2.96031787658569,15.1308519759045,-0.543916611246739,-12.7739520873544,22.1633564193986,6.96277651663223,-6.50973842373054,-6.00818264494315,-13.9347120649033
"13",-34.8968550755981,-8.89801127491702,-0.438174136136194,8.74203189777348,1.13330961973348,4.49195811909073,10.8377540772664,-7.25201524100611,6.24282145960919,-7.13132816323807,10.234522755931,-22.6305219829196,-9.44828171060092,-6.53042337573322,0.737975326340938,-7.54310545246319,10.0693888914505,-1.07809256547883,3.82004832135552,5.88622201774374,10.7255297591026,8.98106681238875,-10.120720702238,-15.4853965178579,14.0276966109297,-17.8593285054624,11.3548723320722,12.0906175475392,-12.176548552975,-3.59954175949336,4.8119534120499,-14.6764284686018,9.86312485094087,14.3489377421464,-11.1634482609404,5.71933340834961,-4.44522816432197,-8.22785791059295,-3.16988483705864,16.9718076088985,6.52503251273185,2.35236156188884,14.8870993493925,3.46094952628064,0.497488021435833,4.56128414492901,8.41509339830135,-2.11475238438048,-14.7589535155413,2.5926941597667
"14",-12.7739178442328,1.97258164886577,-9.65333304752678,10.9009687603479,11.1652461975968,2.91593902774614,-10.1180233293739,10.5251200340024,21.9365454993754,7.75882394254397,1.43111104544681,-22.3225531301971,3.23693713042069,-3.42450428199366,-11.0016181918898,-11.853478533733,-0.91047880181899,16.2926322399371,-3.64259544550614,0.31764244259252,7.07177624275522,-6.22698022659656,-5.07922267452696,19.100917006326,2.88645317645073,-12.0512058286869,-22.6352499739736,-10.4007641420101,-11.0817601504958,6.6310754492765,1.24867867858522,2.75257263427522,-11.3170270949461,7.35582824072669,-6.99650020909998,-1.07913396636501,-12.6741619539015,-2.2908136210715,-7.54399534397072,-6.14261020061399,5.7905966861812,5.16933737013236,-5.98318029968307,-14.0394218419102,2.71842073177218,-7.4730384417737,6.92551352981212,-9.9023993201067,-5.24379805544384,1.5125694517339
"15",-0.689609098936258,2.46752069445814,16.6976870345127,-3.23010444005068,-0.123642293302016,8.2827938758984,5.31332610329024,-1.92383981995531,-23.0205042767698,-10.5492768931053,-26.1288226243304,7.33738156885208,-24.8628488759291,-10.9133214554892,2.15555502941535,21.7059489184086,-11.8993736630257,20.726553020637,11.2128611158047,-7.27982331097305,-8.13747771844523,8.8419494608234,-14.8316884996245,-2.30442205587383,-0.569648155552162,3.59451871955437,11.8382875812402,21.9485397231168,21.3526112496805,-15.8144313989557,-11.3453663997076,22.7885870565189,-19.5611418212848,-4.07935550685167,5.33745624284468,1.76185590173311,-5.37465361493257,11.288901034551,16.4184135870201,-24.8303846606123,14.54379046943,31.6366915337881,-15.9639316020687,-11.4858583250758,-13.8687644650468,-13.5250867471012,-1.15055086923178,39.9968198794665,13.3148930673675,-8.43878180569522
"16",6.55142287705179,3.13341051830748,-5.07394245882648,-1.89051776223829,10.2266335617978,-15.2264202108376,-16.3125240389104,5.56499237598257,20.7415538729095,-11.84455439921,9.96596875044374,7.46589424307849,-5.33644611526043,2.70339451672902,-3.2981386636146,12.061398893341,-11.8912331715734,-0.268912902060813,-8.6790682263916,21.895036048487,8.82928696430589,2.84868888732043,-3.90724268315088,-7.0531062325853,-4.70831464402913,-4.50571994933357,19.4322876587359,3.56738155297326,16.5162997727879,-21.1812925326329,-8.60483594795313,19.4612177774225,-9.23885175344995,2.60580941383192,1.70612519479872,-7.65442559752302,4.62066174219355,13.3786849372094,20.4065008557749,-1.18974499000152,-8.08096202736159,-2.48166423566523,-2.93945115336198,5.83572025347491,9.81015955005384,8.58177847756422,-7.45820393510818,-5.58670584390231,-24.424244348411,-20.4076423695168
"17",38.7162731954174,-5.07038611114635,-0.0274230731696576,8.69172249767219,-5.39449909812117,39.5908302382775,-20.9990945120392,-36.6480872894973,-16.1808594882987,11.1450140867461,3.05216429474693,5.42783825078412,28.4610922731356,-15.7058645055825,-22.4823000472665,12.6681913610173,-0.745738387326485,40.6140290044136,4.70777336026985,12.3004572311493,-20.3326740563783,-5.65090552983248,5.73809944169334,29.2201856115574,-9.60600275037839,14.6345782833999,-36.1431772341315,7.65947131617096,-8.96223824221945,-14.4579883401342,-3.89159688697334,13.9993784365628,-4.93640277107295,-21.8430448951714,11.1319747365479,-0.273511285607557,-17.3100264977572,-3.94361087521612,3.64413929505847,-2.6415591034586,-11.8924965931216,-6.85616930003194,-25.3037541893137,-8.64321241086965,26.2111116161553,7.4614403787033,16.3165743474421,-10.3741892575004,0.852849685242431,-0.109146276906936
"18",-7.49089200652134,14.5888322017097,-7.96391433487068,0.422578441169482,1.02277299395155,12.3571374322707,10.4594760037966,-0.883694891465676,10.4320893628447,23.9432135548436,-3.32292611609057,-22.4768684427777,-12.861820442474,13.0462551958232,-22.5182984428706,-14.7737225975123,28.4521403782128,-5.98682173734993,-6.70889028631729,12.6795814832355,-7.67148367874913,-14.3665469613728,-5.03732806170563,-14.3490632566965,2.83172086485165,-9.74943468948312,-11.9881315851665,-5.36638612978518,-5.99053170511059,-17.2567871508928,26.2880454903718,-42.988626489348,6.08663777552621,-2.80701191928897,-15.9720787004227,-12.3121285876944,10.426160672369,-2.45843164639123,13.5787729553692,-31.5168250780056,-5.61448880757087,7.30075015420548,6.55106276100482,-5.53614178912268,-6.31711399142812,21.4337534027758,-9.05266244602485,-25.6632353945673,-2.99309209186743,0.915012051991917
"19",-4.76555682196058,-15.1204300042746,-1.09589203330834,8.00671870605676,18.738178670774,7.68132686273942,18.2159970086547,8.54516963585855,17.9656550107468,-8.2534684020485,-2.77994781289665,-13.6689245466525,3.80859429378056,10.6702402167361,-5.35632944544823,-10.1674621249534,-21.9221678398389,-7.75822586117763,-15.6341614367345,3.53708520384492,-11.6297332556711,-3.04458005892984,-5.58590039165784,-14.3502615907711,13.8726753839212,0.243080103616142,-17.1841334267656,-4.75136434688928,1.52981429959727,16.7157102208514,11.4571065999368,-7.53873302019436,-5.07029383363224,10.3756024986974,-10.9072390142313,-3.10782849868018,17.4922691742993,8.27061978512431,22.0580606270229,-1.34746950392073,10.4494344392667,-15.5798153250531,6.46836452507203,-6.6640948103442,2.4761777057445,5.31194132521612,0.570722766163135,-0.331748644670842,25.6352438632995,3.72872287161161
"20",-2.58106683772771,22.1464955216947,5.26445940469478,10.3356570185393,2.44757533898353,-7.16438002394095,11.6533350805078,-1.45997145455429,-0.422843873409146,-4.68044504543578,-4.97503462129739,-16.3719168097319,1.53070818793318,8.4825300636847,6.42355041126486,-18.6472823204296,4.29825235813615,-0.942801166957678,-10.2499406976874,22.9681865745725,30.8648948160221,-5.21981924323384,-10.476173099096,-1.65859247418229,29.3593730492122,-9.1788631919419,-2.95508936328266,11.1105384991778,-19.9044583223916,-9.06525551871048,-4.52329716055102,-15.4423726228093,16.2723447919686,-2.63298653756715,-5.33390627016944,-0.374327682782775,15.5872835416563,-7.70687953871362,-15.8035605960396,9.89190556888346,-14.7040368969689,0.269680237348217,-3.64887853466298,8.19682761310044,-1.75990944262469,-12.7575293222464,-5.64934381374811,-9.96919142693065,2.45790950578614,-0.137516001315318
"21",-3.5432829530367,-4.64903480614373,18.7449998595688,-15.0204661336562,-11.0957501791879,-2.976726803294,6.06046204407542,-11.5421025545716,-14.8396890948654,-8.67060457842455,12.015276093297,-15.8658516499137,-1.84006731609817,-12.2977294154727,1.49962748958503,-12.4641512608775,18.2560529180511,-9.60868382326326,9.74452988595317,-6.06877000251728,-2.56572803450876,-3.89392963606456,-8.18737116974616,-18.4348032783847,-10.1387049439533,-5.95651175575133,7.85304118032712,-4.31306928572669,-7.26345133720647,18.9290410613469,-6.32908680682432,9.22545837790938,4.70172325672705,6.62679657084921,-8.36666842492411,-3.55291635453411,10.3751931373861,-5.85182186264209,16.7261909581341,4.69808792874281,16.8480405270932,-11.9683834635608,3.4615352347169,12.8707041986703,0.26515297944712,9.46687337668426,-0.0671040547631696,-4.68866031212326,-17.4662758922951,2.99791491437539
"22",-2.97956362985365,4.03483815991638,5.64638287990528,9.57341214374889,8.09640760304542,-7.92969178006449,-7.77566447081008,20.0332056369981,23.3632642507404,-5.92428084771761,-2.56694557180523,-9.26603331724666,-13.028906916104,18.6528235932902,7.94274018484171,-12.70500017416,12.9947671815342,21.3414175346027,-9.91222585984224,5.85396682512704,11.1042163444566,17.6469744736007,-2.94398674492531,3.72329338972692,15.2731503598034,-9.61630103219014,-1.13211961187902,-10.4576132961502,-12.5416496119204,-27.0963267386039,-2.06083219815099,-0.817562940739441,8.55941863309748,-10.0977657907576,-14.0921561046197,-14.7140067655209,-11.7104819549034,-9.96390850007943,33.0617821466765,3.47168411885891,-2.50628433590265,-11.2431163974607,-1.57125019342027,-11.2567368384326,-19.4411689356755,-5.06508822484794,21.0468791090172,-7.84101375858512,-7.09564767478037,0.61435174085156
"23",-2.90278365535344,0.488423603983758,3.31916334474045,17.2970019833128,-14.1670290276843,1.84808497815521,-11.2694818812644,-1.61711321945973,-1.80286182067883,15.0002839313868,16.7458946104324,5.03397633200059,15.6903952684894,4.4275022652501,14.6723789290499,10.734014371966,10.1354228614694,20.0782909628799,9.01909433511239,11.9402480209478,-4.28387692110229,19.6146947015364,19.5412266286188,0.967769317896718,5.23917095560726,2.31320746897298,-5.91055591338247,1.20421140241729,-4.36925905054143,-0.00808864959688386,8.33001113741134,-8.96181307556797,-15.9770004231747,-1.61007280342246,6.91767655812999,9.40238366295394,-6.78728919394923,-20.7314189844218,-10.4945047880087,8.72503055974526,-5.4726825131034,-14.8004752655504,-9.13585813341307,1.70302544955825,-7.13184435448466,-0.482067645330112,4.66203665371823,-15.1998116595019,-11.1485594155569,-14.0054404916579
"24",-8.28148217376645,10.6661462022937,1.34944077087289,4.76027367542717,33.7755946996451,-17.7873181091664,19.5084343389859,-8.84731939931247,29.9570252188244,-22.5994439960247,-17.4890073793704,-20.8450876280353,-2.23789774458737,3.4426679151799,8.86361164486553,-8.09263177449127,-0.832821218141087,-1.90117908494036,-10.1634486985706,-3.60921340948439,23.8834174649515,13.0570432625116,-12.9315767836363,-13.643192886229,-11.7604167064012,-6.44774330503417,5.55690904501165,-9.41567688710951,-12.7234952576958,-6.96208801293361,-8.6639290107113,-8.82588148977278,14.2284995852625,-3.91584143171606,-11.9161073730359,-8.17496689860907,17.4390553630092,26.0637022839532,0.43288983658187,9.76933249465368,-10.0071319696118,28.2317413439469,-12.0979655230692,19.9015570947019,3.59064939165545,-5.3950589788207,1.16496740639562,34.810593264174,4.27048808319083,10.7036853099521
"25",-1.85922279959177,6.9235518479709,14.7780957972798,19.6367314861285,2.33540356631899,-1.29546918923683,17.7511476617375,3.87325695580866,20.9516203684724,-2.89097516352632,-0.59842694399851,23.0404660822855,-6.49691782976413,0.605386111297594,2.29704361559758,-0.865368947702984,15.1314570515134,5.86990412417186,-12.8155304311104,3.49538520177582,29.1729686395994,0.772442818996649,-3.2850802523318,5.49401706452863,11.6054136191935,-5.73662272327483,-17.3767951477031,-2.01021649793739,-14.6495711286118,-7.3279303283416,-5.4979401020687,-6.13339032306689,2.14109112922301,10.3542194652036,-0.573395984398692,4.76160646135704,-0.302132171799567,-0.0923910004107403,4.34168750549417,-9.09800853340468,10.9129137652817,28.8653885616012,-15.4383649990431,-12.1794225587882,-6.66183163632864,4.91158284078487,-14.6005989137752,-15.1114996800641,3.37948553889868,-0.327823083942213
"26",-7.92095388218945,14.5253246493984,11.9236970978079,-1.53283217635197,-17.4914871120313,-5.07323941428692,-17.0226489053978,-9.67369281195961,-7.84445236306551,31.5393804009232,17.5117703844394,-12.3195549724236,4.35964591580827,-10.9104828330625,4.82773500890727,-10.5424169142345,15.0172443958514,0.404316952821006,8.26296395601378,-1.30252589998726,-4.15205189229418,-16.9911119920159,11.6179390772069,5.00132910011248,-1.25097552722565,2.99394517434334,17.5784284152994,-4.85979372186395,-0.61658038394906,5.90290946441909,15.6507461215489,8.44976073817826,0.755688424827798,-13.3928593208746,-6.17706731405546,1.86541668960215,6.03598267615532,0.0586061354450621,11.8122547771475,4.9089912071325,0.380735264351924,7.59631322351057,-6.78521582905968,-5.25047358260408,7.80412699976389,-19.6901691313123,5.56003671645689,1.65255017472274,-8.72543755956125,10.3045962961516
"27",-8.39270630232207,-7.56741085937859,7.58698257731038,2.4625697407723,26.5489000205515,-7.20378457320229,-12.0473286274501,0.890783643655835,-8.80649622017545,-8.90477159642959,-37.1097623408022,21.8304861762515,14.7614187122702,-9.99205604861028,-9.37108003763788,40.3623821856108,-23.124870985199,-5.18036052180057,6.36074752069095,14.4520177570012,-20.1487909758271,-2.19300358179087,19.3584902266956,12.2873759967007,-3.04558688234732,12.4972904665306,-16.7410330024698,-3.51698622287644,10.5553101160737,25.1810948771927,-20.1275475222373,7.93652265753049,-34.1864370229105,-12.3038704748842,6.66097017913883,-4.13234489798402,-11.2702350890735,12.8632151414455,-15.117719378652,-14.139755196837,-0.481117471847252,-17.3853343772833,-7.26726367696519,6.11917074527603,-21.9739813273448,0.107122328471539,-34.2507231845336,35.5344644854212,27.0482848662995,-0.49931187070225
"28",2.71248498113634,-6.47189633484048,18.9325555833512,-4.53576641678682,-10.69684800045,-9.71389206525087,5.04067771272465,-9.64909517683976,18.1134493664397,12.9818719969968,6.01667376313236,-2.19863572859935,-0.395384483037253,10.6987707739723,12.7008597941516,23.7517468683285,0.544361867530329,-11.4211966748811,-15.3753732238042,7.45908908411889,-8.14392945623129,-19.8277279797467,-6.96041145267291,-17.393164094886,-23.5411421763678,7.89466051458992,0.601369458876609,-9.00411111209399,-12.9822569153679,-4.51874308501219,3.38431586461687,4.9839406483942,12.2916719196402,15.9152666404253,5.27213120111103,-7.6252729077646,8.10287747978985,-14.4251847892935,7.18682662387864,14.5969741450381,-5.17711986040829,-7.15140115993171,24.9302552266487,8.15230956281245,4.87763153144557,12.9853627583313,-13.4278845015419,-4.59953616180695,1.44402431730506,4.52424750010843
"29",-1.5694481389311,8.92067589823442,10.7852412443116,-0.979918939606657,12.1864888949807,-6.51545764938017,-12.6422748351355,2.14547785128004,1.91706346726561,12.184280989655,-24.0801680540397,-2.98314173277448,7.55498034269963,3.64398389798823,17.8221754380202,-4.86088353553565,-10.8029414799251,2.84693552668469,6.33617796733823,-12.5779152105419,-8.88629045194524,8.66688951986437,-12.5969716380042,-6.28720174222083,22.9404351837752,6.0337737656695,-0.445331815220468,5.25862236503816,27.2167895683961,-18.8224700030747,3.19024214613454,4.13961442702906,-5.44473375036639,-2.69923039209391,0.527233353707085,-8.01976390859357,-4.4680811207338,-0.185611915685506,12.528474180584,-15.2035541513597,-20.7185949105106,3.41919486653075,14.920735224345,-18.4621399595874,-2.00110595973102,13.7508072859655,-0.646373310566457,8.23717521495536,19.2866322840824,-11.8973675420679
"30",8.76499943032211,-14.6515805865408,13.3602134254,-7.20750000286967,-15.3427827455102,-9.33701356077058,4.38995190848885,1.9359852084232,-43.5918635047312,-1.70314930622261,-10.2221030195245,41.1029372445389,9.60110503257225,-4.27607011478696,-15.6878698073589,-11.0297776894051,-1.47358331466141,-0.655884470523101,13.3940336113728,-8.28652270175207,17.4855035580298,10.005096700058,-1.90590486685013,-1.28757589967977,14.1807661764916,-2.24317443951209,33.0112306536062,9.28371006054137,-18.6213638698385,-0.840759084406676,-23.9340577778883,22.3534106073147,2.84930964642687,-2.13466066742892,-10.2888196972673,-1.60193596728088,-33.9177568111231,5.22739445885374,-12.2582432629257,9.11548109825719,-15.472475232853,24.5379774412387,-3.07894650326725,6.26142278583608,3.8704733080619,-12.1368439751571,-1.35735771025653,0.606760533911422,3.8891427405006,2.68638250299664
"31",4.72232153113173,-6.61375546691228,-10.2914579324534,5.26284908096599,18.246786623935,-4.80282469789482,-2.18997476472321,-7.97154146351543,20.2822940568391,-2.71354221409227,-11.2691296322078,-16.666819109832,-5.38708952731245,-10.8406299479398,-9.8601829898722,-14.5680984101489,-43.988416248902,26.1833293103831,2.01251460654543,7.72109077201379,-3.97843299875924,7.48181599114437,-8.68849855847288,5.92686850711406,1.68090139574078,-5.1073551483192,14.78319005626,-2.66865585416929,-4.43165893124374,5.88069867108573,-14.0443963143795,15.6405012519414,-8.53033979345438,0.91374058738877,-1.07093970043842,1.67125160223745,4.4682274307776,36.5204680484362,-1.63577450358175,-2.64067951939304,10.2908553257619,12.5951445970673,-5.82148583623378,-4.59548640491233,-0.315940702603041,3.50940795481591,-7.06818168981803,31.4945238579908,7.42035775500747,7.42648946731467
"32",7.79598509219374,-1.31850272738552,13.6106831806573,13.2446009738095,-6.6636831807679,-18.2663756239349,-4.59226477325867,7.14410642788907,8.07468036969632,-11.2740517383733,-8.14824606185848,15.2033192733605,6.12172027739046,0.819168547051104,3.84742815123415,6.32116057813665,0.533957007108691,5.48521159655153,-25.1171573652544,-14.7141618262202,-11.0490422573163,-19.3258415897153,5.63780582734653,-5.98885192338105,-2.02918976516286,5.01636480828664,2.31828050882384,9.77926848118974,-16.0877285216588,-17.4802321943348,-3.79924696180181,-2.41682116794494,-17.2287023347346,0.814883901139445,6.68937599794984,-14.9478330548689,-11.9611480432027,-8.22142991649033,16.1487925631709,16.6514459688311,-19.9370636821578,-9.28494363211632,12.1820042608062,-1.30506392601438,12.5750968088685,4.90246932452602,-3.74854076276453,-3.04543287929184,-9.05151582003369,3.24370455926061
"33",1.63634947213863,-8.4911097474454,-9.55178300974062,3.36770191142831,-0.545494672861412,-5.14382515906163,-1.2450324834275,-9.64289673718902,15.4178625920018,1.5418491638264,0.846918980577123,-20.2675145815489,6.6433423811711,-1.14497740682919,-6.67125846777783,9.76883917804274,11.6910843829399,-10.5545898345907,-18.7221543022865,-5.31460421219624,-4.52509482289806,-5.13018966359291,11.3410581615307,8.23979695462691,2.76654478308453,7.70348032170807,5.2002827582457,3.51637725974243,-4.38336364292833,10.1068855133671,14.2233509333135,-25.8754036570719,5.58798608123283,-6.60894206388086,-11.5293327697568,9.63720173896547,-3.11057505773491,-10.854655769593,-1.63861408110951,-4.69774782409678,12.7498894813516,-12.2999364856513,2.87747472529518,1.9712610715865,10.6489723370398,12.1900214789005,7.72816882889947,-9.14672568754775,-8.60453250084893,5.11426874229367
"34",-13.2986830515334,25.953189025166,17.8411915438928,5.656295539646,34.1186377701803,4.47433246833891,23.6456656610796,19.3088991049349,-3.03683857462877,-1.12359216967947,7.40556174480905,42.212470943188,-9.1769313914614,-28.922145735355,-15.464273344723,30.2808147395079,2.42026428667654,-8.51895075750172,15.1586446983195,17.8332450829982,22.7680900519733,-2.1955344399129,-4.07656425787067,14.8549778659171,11.1172554107387,19.1417343751103,8.34369705033974,12.0417794402976,-2.9337975551585,-17.6432589436643,-14.3795937541422,13.4958867848538,-3.1033202213218,-17.4356824269137,3.95572017543376,17.7201288432275,-9.34432692249709,12.4968585778277,-3.4773213916144,-17.8826408524745,0.588867233458233,15.4707494138943,-21.2340277744529,-17.5984207452004,15.6728365389399,-14.2424112594867,-3.95921909638112,-6.13401243429635,19.2075520365557,-2.13413671596567
"35",-12.1314040270142,8.69861249067496,-6.36229598993942,-34.6520156081239,-26.2570003615354,3.58106452852053,10.0754606231365,-20.6249578701443,14.0942116239754,-5.94040939244144,6.11503954078264,17.834217762826,-5.82983007276242,-7.2381375033019,-14.1809522628119,-5.52956464329685,3.06403682119949,19.0573576315354,-7.88750530039714,17.8919551152916,24.4133814235771,24.240486726106,16.7448319919106,26.8587100170135,13.058557736512,16.4741963689111,-5.010052734717,-5.28204001980425,-17.0541099369237,0.219326349658778,12.7744997956687,-2.27470705438891,9.54816152325487,25.055045975659,-16.1997799016828,-10.4681248643727,-1.02712137155742,20.9205282813643,3.82492087574486,-0.208694928962522,-31.7679963919203,4.42642640217748,-19.7075053115663,2.9718722094669,-12.8585096641775,-0.637458901950943,8.65985688745322,1.02000742134091,-8.47186077931093,10.6702943869198
"36",-0.662328665027623,9.00692145721115,-7.22496635473068,5.13706116006634,10.4966789461457,-3.58115526337972,2.48550696159238,1.178891657371,-30.0727134901663,7.79049870165865,0.108615162908444,6.52922678088717,3.36234714270117,5.26165018695461,18.0592665064244,-14.1926475953879,-12.0873693820253,11.9648901381328,-4.45731646885939,0.579516712054827,-8.52198027655994,-15.7461079918347,-2.43721726537316,16.748756703549,-5.40388193085518,-3.81271224568344,15.5126179568649,-11.081994501874,7.30710920433052,15.8570382837685,-14.9344425692782,-3.26907669600128,-0.812550155508707,-1.37757826085396,0.939966936512989,-9.16155595578384,-4.31141326457945,5.57264761501285,-13.1347215520166,-9.52387408248711,5.37550563220093,-14.6154483883619,-14.2341607082175,-3.71047316833987,1.51092602305922,-6.31930048885841,7.09751832675411,-0.179509040576439,18.4634552822607,-5.3472454505728
"37",26.9754311749039,15.3837156744705,-12.7733679156891,7.7845380601901,15.1862983114245,-9.03479047443934,4.84584061128261,13.343924618727,-16.8579296271319,-0.120088587399394,-11.6881901487045,19.6044039079454,21.2393678584188,-37.6905643239157,-0.0266953631343848,3.41860117994817,16.4433306578522,-3.48421390483353,14.1495506426857,-4.68680640327963,-2.14218253190355,5.6630802547557,3.15404750790338,8.31040912913264,-8.40886175208438,11.0870261467191,18.5727942232499,11.0383101230022,11.3921932736223,1.064966407033,-23.3763407370511,-14.7461004597874,-3.36135346400067,-20.7484587657041,14.4380873078594,-1.93995384904326,-13.7196981182654,8.31424578683809,-19.978699294855,-24.4215339865829,7.03030118268514,-18.1657398359392,1.97457445691776,4.18037686065424,12.6261432946498,1.33197613046112,-6.47819094787924,2.41015963104832,2.57449421244667,10.8233450564922
"38",5.86969491319331,-6.708848572865,11.1775311259612,5.53693465333771,8.40804075304234,7.39134158024026,-15.7748952608922,-8.50746663311498,18.970105987368,-13.965470768226,-8.00314373754473,-12.9104863324316,-2.89402618699931,22.8596374981355,-6.13916890119761,-16.3606238547881,-11.2684866939062,22.3837804335335,-3.40342468239047,-3.12074325555499,-4.54646991492246,-0.445901437749146,-2.25704318990726,-28.3838964155634,-5.44975553379787,-5.442455903897,17.2879091819638,-8.45463770586042,-3.27938780900703,-5.6510879647616,-11.9087892015678,7.32057644633479,-7.33052095090295,-21.9489355101454,15.7036489810695,-1.95966075587035,-9.65455826911623,-3.21837443254829,-3.13510663231973,8.75508406156869,8.87273193318758,3.99993982519227,13.2501458647417,-1.78240084510407,-6.45231992046748,21.2625941856007,-9.30489908421439,24.4441220424334,7.27530120813223,-25.1980014645866
"39",27.5102658697125,-17.3162480642811,-13.9750338617411,13.3803903223988,-3.16867871211474,12.5573504556696,-15.1843320770903,3.08432997074533,-14.7389245035371,-7.72394768985786,22.6246060447072,-10.8209085548194,-3.44327655459908,-12.3605810333647,-3.49099427787545,5.272205128551,-7.47036436816186,-7.46224520109089,-14.7664801945161,16.8628537383028,-7.42853443162006,-11.8888530254421,16.8094670887961,-5.90791992428681,-17.2320581752927,17.3511897772637,-5.85937170117303,-3.66725825087029,-7.94374637779168,28.0308445797332,6.05796338638543,4.3994738236866,-5.51568553085167,3.49340614916786,7.8944571055117,-5.18907982933569,9.07206132824381,-4.05322775927974,-7.01542106137204,22.8998006480857,7.46167213135509,3.28260145570572,-18.8943445184047,24.8302478625939,6.00114098482833,0.420690110754032,-4.8102404457758,5.59054389572649,-17.9399807598305,8.12279863603673
"40",-10.7855490390827,-5.48825992671112,-13.2994178511394,-3.20175473826547,-10.9487035422648,-39.1497653810672,-9.36358056847297,-1.89404993704744,-1.85520722951476,-11.664952334941,-8.4667293054609,-4.98438892889932,3.1135493030025,8.76505805701853,-24.5351228697789,-8.55040210916894,13.8800155663549,1.81465360966807,2.03148816204656,-3.08906486420336,-9.07141663991696,3.60514329075066,3.96888450970286,9.29906564719772,-3.59906420517611,-17.1702817404472,21.6226071258643,-7.3202948580118,-14.5331610527306,4.60739339745691,-8.52784507631164,12.3636625158682,17.7447230224776,-0.62245533760085,-12.9791227605421,1.40074548321267,4.47419900801702,2.5163623792908,-17.746372386815,-5.38661333809365,2.95687666972195,-7.76533445361925,0.829982633620275,12.6264113413214,-8.67657969050002,4.32756855844563,0.398746589941332,-4.94220664144381,-12.7738721405294,-2.60889423902722
"41",1.87813520481814,1.24702555117458,-3.60374096574439,6.3543822433145,22.0060071998201,2.11219680172859,-1.03568571611612,-6.80855207794656,0.42917780271817,4.58952559165209,-3.41778450842225,17.1137038020355,-27.2236905644036,-24.9960487445076,-18.6657339318839,21.8437305719797,-15.1084430311552,9.73706124442382,13.1278710281832,7.65826091432317,0.459935120209453,4.80951716469971,-21.0000732414375,-0.786535645350628,-4.55439879064095,-2.1154387232593,-17.9918117295438,3.70893704180509,0.718793491893487,-4.60119206654234,-4.65108420286695,0.775265965093975,-11.0922893446911,-29.6529312254361,-12.7389194572704,-2.63715540806295,-20.7979067107203,-4.49852409340732,-2.40056255460088,-17.7201054418955,-4.17464835893915,8.07091324402252,-22.1125341683133,0.632696055313196,-21.6483499146144,-8.31490539106028,7.62858171550448,-4.64352844070001,4.42260975311579,-7.82921882772803
"42",3.92969437143686,16.1975420837909,5.91550352281918,-8.59293931563297,18.1136737556903,-9.3596305099957,-7.08464535429647,4.50388294661876,18.9549791551948,-11.5429781613589,5.89678070097262,-0.210092137786515,-0.749368397917905,-7.3075237349957,-7.66278285106029,-2.00681232796194,-9.51266929996925,-0.381849402620073,12.0667455817206,0.846103588860073,10.4852414907523,-0.628591186276958,-9.04765196307668,1.02549352442326,6.93258832990982,12.537335702826,10.7054329939001,3.13855430618784,4.4557494711568,-7.82570395015397,14.750263678159,-7.37823332637102,6.13571761024356,-2.76531308426688,33.1321622227389,-18.9813780086444,13.4791978434588,1.29133488827576,25.0300261080315,-10.0948854762337,-5.94194354071014,11.529541866797,2.16945085282535,-23.812816651834,-18.2891852535735,-6.02774003822443,-6.55488673670358,20.6385327089628,12.3614007318015,18.006471858088
"43",7.4306694141335,14.8832871405933,-41.9441712571757,-4.7606502992636,3.71902182812634,-25.6041327747584,17.325741052508,-6.55065198070144,5.05962566897261,13.184263113435,17.0843068685482,-11.6435030804299,-13.9169866876849,-0.277825329955759,5.62395053173002,-12.638434653032,20.605631970603,-9.65466958823943,-6.4200303264314,8.43744503563019,22.898437146629,-4.97159311555465,4.4031673132643,25.5742042856101,0.775373942136467,3.91630446845807,-5.24181339314639,-15.8021973621733,6.86586121513303,-5.0924104588855,12.0880391787529,18.2886573514094,18.181745619083,19.1796488854929,-4.43466287810684,-4.94563648791956,4.18564800939336,-3.1455804653309,-9.40019704304755,-8.27115571703315,-7.20649328874123,-13.7953694027468,-22.3752162996989,-11.1461464747426,5.20455548090648,-3.07935161666296,-5.92902522086541,-11.8931931336972,-22.9357578711752,-10.2354636347866
"44",-1.54799292160989,-16.6217227190632,4.87924257338024,3.83849942141463,24.8482648863199,18.1073418122052,-4.00141862503203,-3.16903706575879,31.075737337163,-0.130739628197192,8.18601960901329,-26.026064945309,3.26997600250997,-4.28130325388698,10.4426430729428,-14.8691533478733,-3.82854812635186,10.2348636179508,-10.4418332081023,-2.33322463740175,2.70679352730137,5.60353412223244,10.7258477861362,-6.8617665623867,10.6831903562104,-9.96624640190451,2.07240712231597,-12.8310156210187,-5.47938195098931,-19.992717351407,22.9727515529585,-10.3143608506262,-3.76204073487594,1.89391941396102,-2.38827735147338,-2.12563253637833,-10.8727447013516,-12.0706986659299,31.7329108096404,2.25875415900957,-11.3316270482088,4.17585247936968,10.0958402256486,5.73295232742916,5.19031737130791,12.4598119756206,-0.0151444974008983,-5.71141702601942,0.364418780208575,12.8992161201281
"45",9.09514172783576,-0.291431799130514,-0.993947265273717,-10.7023476881399,-7.1059977289625,0.807620150815348,-6.61542748130856,9.39480442145048,-2.7671877582508,5.20471723149689,6.62251023621798,-8.92832459265509,16.6129097959627,12.9119584209395,21.069341902662,8.03697684727509,0.555537809110865,-6.97732579293002,-0.453376164579961,-11.9386021907308,-14.3602637544761,-10.328684752109,5.36309207190977,-13.4742482846072,-8.99940238663761,11.3130894285462,-2.66714796222868,-3.88808838542327,16.4400172632972,9.55523830524367,5.0702026390916,-5.04963313720763,-4.73410174901734,12.8429653788699,-2.95373626146358,4.78815437033959,0.0825462150968647,13.1434802624762,3.73688699348121,8.07010562833082,-7.17672047864858,-1.65403933848298,8.65845184645138,-15.3313866346587,-3.46980213410534,-15.2448637351469,2.37040752314425,-3.4157090760363,7.67789497271205,10.2887563076338
"46",-9.35245381849474,9.13085294194896,-2.08707191212861,-12.5888470747193,8.17300269190478,-11.4276559312361,12.8921020148471,14.4027560933166,9.37804403419398,-11.7700449216788,-10.4522128716344,14.1817116850377,0.169161323174986,5.78311812348479,2.17246109592651,19.9154163028034,5.01621575810252,6.3471256779559,-5.10511847029236,1.29532440194181,-1.05124700390187,1.8396420933207,-6.10151498538472,4.59854958442083,-11.0333444362508,13.169581761555,-5.65737243671559,-11.7757584089885,-10.1373181963321,-19.0180381598435,-3.30336313252313,-2.21710019906063,2.42065012526388,5.49455393034183,-5.17713392452733,8.27020578596895,10.1152485958552,-12.6256232104052,-10.7588790680397,9.63964581655337,6.67213734503863,-2.53363772820587,-9.30303133641859,-0.422900159645118,15.169261440734,24.8853051443264,6.100804232842,4.98365603604302,-3.7512641018026,15.7348616825633
"47",2.7777137068118,10.1511678545998,17.1849896502618,-12.2530952216618,-15.7685718581255,-13.1469860970458,5.25265286668713,13.566887270539,-8.8728129028269,-16.1983065250098,-8.75283117778809,4.36424992176664,18.1631276111189,5.06286639143334,-5.36926986515292,15.0791524424773,-2.49625045242648,0.211996993660653,21.2243335350492,-10.6417467582925,5.50918944170912,-6.45145439339174,23.2425242133545,15.2336187087498,5.50544208154918,7.52984482743855,7.77705855852946,3.92148374086155,-10.3162938838923,13.9802028074518,-0.983925063398554,21.2867529981881,-6.86213414053116,14.5685645930105,6.94873398469444,16.234080938731,20.7480257124323,5.7797308228252,10.192016187957,4.89475546225197,6.87583995357361,-14.4892360553176,-17.6728746046761,3.63413260402716,8.50595467855908,-8.43188222715709,7.01687794042562,-0.486869996198919,0.60364993371689,-5.25017274526548
"48",-10.2086391726699,-9.79975492663827,-3.65354603267451,-14.1159413538267,-30.5135296764557,-7.47486380468434,-4.02862195948522,-4.96298526075916,-40.4031510095369,5.9216117942692,35.3546474501719,20.8180615352821,16.0465565641545,15.0306930474902,-2.21063925377107,-8.33533929587083,-23.0162989500698,-9.90488556547916,-2.02269019800835,9.79375946205772,9.39799717011534,14.6454565989122,33.225218799952,24.7498665344166,3.56691890474112,-7.45482944663973,-8.91470534635109,-10.4858716743215,8.89314513198687,26.4910809437945,28.0374790866519,9.19394357551326,2.88533647147309,-11.5085242993878,7.36300891990043,11.2279548610427,12.5729377646685,4.12304588330579,-16.9581360924287,-14.047813723232,-2.21217340869547,-6.55973121957452,4.17110021086172,-4.63018295238811,-5.81099675621482,-14.4787809991463,1.08966564771115,-3.87911191179532,3.24570866292943,-5.95504867443519
"49",1.67094197071918,-6.83601983902764,16.3299838558693,2.61389790179822,-9.85553120346237,10.4160524396006,-4.28529443482176,-2.5888984274229,-20.9046174042457,21.5272501227664,16.7895797891743,4.93710130008577,-10.4899043333527,-0.0594897084753093,-0.74946766323107,-9.27182179702161,11.7108436859548,10.2121279577243,2.73930391519407,-17.7999807473939,19.0874197865331,-1.74506879233333,-18.7681007373898,2.88495012750923,2.91994616053081,-7.1066773622734,9.1135578068223,-3.18381418156589,3.34327219433341,0.205248168908251,12.2702561234827,-4.16763308078722,-6.64443524368975,-14.0344657723064,9.32749188715073,-16.0446742511991,-0.869402018467721,2.57290939579625,-12.1770483605262,-1.67437907629014,17.4739981560254,30.444515026235,13.5001876135785,-3.45760372163504,-12.6142099467307,2.81126097620042,2.9515003168953,-3.18501873568564,-8.0523070898343,1.67684889086283
"50",-2.24038941007537,12.013584548432,6.92707383797524,14.9607965909183,-5.13673917493968,-9.32908451622319,3.36855360730662,-4.63228215049464,-0.860203867867684,1.91325398130642,-4.79117666432994,-1.53108068928463,7.68472004216364,4.71292517431368,1.85468476109287,-16.0209531653854,-3.5362397345796,1.90207411388631,-15.9161567223364,5.83220450553188,4.13179464118784,11.3384175501033,-9.0175987247043,17.6518304566559,12.1652339257584,-8.94192612558815,-9.9786049932508,-6.71325494800513,-15.7452109707257,10.0437822915984,8.7738381391225,-8.01124421584414,-0.213530417613688,3.32569184023586,-3.33038626985224,1.35347204885259,5.62491334115136,-3.34228877710105,-2.39839122330578,-1.95568291024562,3.24715649939744,-11.4431853822752,-14.774864870211,5.44553962626027,-2.40044695508824,-7.61690057196024,7.94750691440607,-3.66910032699334,-3.84273522066778,-15.1357174558241
"51",11.0924511301016,-6.38439224470984,7.92528170733764,8.34702267149094,0.699371231288467,-10.9895242708794,2.06973298348699,-4.04707233118382,9.58406048064809,-6.84417303887666,-5.09427656383368,-18.8666336907571,20.4453960167332,-18.8262615948199,4.36225921892915,-1.71887649713289,5.13807600707853,-19.8548089464156,-0.58644444957882,10.0546574675139,-17.2262260282742,12.9039338341126,21.1965000528451,4.95221674979838,14.0260843138443,1.32581472209329,3.00296425982029,16.1123209296247,0.258789508610332,12.2402454823592,-6.95833138748542,-3.6538588026485,-0.218741454887743,-2.10776255742186,17.0628599659341,-13.4455501262062,0.493375627897533,2.38096474789351,-7.46951793993598,0.933421668646108,8.36910620086137,3.0558642290881,9.66191358434901,3.537715030438,0.557598504472991,-1.20084379966682,-0.751408004206359,-5.56012340862394,9.53624910553603,-5.47376853974413
"52",-19.2151558139018,-22.6781061729466,-24.9972140774589,-5.32504579352693,4.43549823669843,25.8950523679864,3.98153179955055,-13.1677626566857,-1.61809325246725,7.42528191573567,9.40137224413413,-12.6921673327874,-26.8824764483354,14.9821335396088,-21.6411664908253,-9.33035804076906,3.40572503146496,-19.373332389859,-13.8064766080684,5.5728985279225,-15.2610470451284,25.2522533294573,-13.5933489116315,11.2143671124275,-27.0650202300185,-10.8967303268898,-10.9898374633202,-15.8770630080001,4.90401390290809,-5.52095133303298,0.758910406509608,-12.4660023795395,7.84703968879648,-11.288049503112,-13.7229676850172,16.8265908148325,-17.9649544880603,-15.4121801527085,-10.3512084250168,-26.0464573493072,-4.1894174390915,-13.1155705356725,14.3486194739493,4.0035737138105,-8.17390469795762,18.1714960924831,-49.3753832456848,-2.37746174663947,-20.260159063766,13.5183480300779
"53",-18.4954049012461,-8.24961189518894,-5.1523183084775,-33.3648692433387,-5.28608872873041,-13.7779606495842,-17.4581770937049,3.12806902025666,-16.2342819968672,1.7296845492555,7.6767133481295,27.7298685531431,-6.0106693897283,-4.92361413586862,24.3272918128817,27.9310427834184,7.07693073003852,-9.96036084580615,18.2561430570678,-4.71178339556956,-8.30633179249242,11.1777963977262,25.5973191758702,-7.09217265736993,-3.4481222254831,12.7742589715752,8.36775328451595,-1.01568666403113,-2.93487422544359,25.9497926921882,-9.42247125768557,23.9821189965487,15.7024496779154,-0.0469798029304216,25.2997712787415,-7.28756320378626,1.19816725809389,8.89943087476449,-4.99970235043234,13.0783881806142,6.22170244774727,1.87705962684233,6.48267937923913,1.72126317353873,-2.60965597075662,-8.73105931102429,-10.0427893164717,-8.94358119570768,26.7856822313126,-20.7101991020565
"54",-3.10429179400998,1.43216730203739,-23.6042876999452,-1.0017482689414,-8.90348859622568,-2.18838629998992,0.387772787321512,1.12807478575048,11.5114559391346,-14.7284207175171,11.1290369852504,-7.5357844273278,-8.62013384736403,14.2926455087357,-8.24578885904654,-25.6491679764862,4.62822235438134,-17.6704392594156,-10.1672899202127,-9.73176354737004,-18.2712780740238,-3.37565731870486,-13.2169458069659,-2.39735886191446,-9.05740780279888,-22.5908086254687,-4.35431487514207,-16.6666646502108,-6.28523717200582,-15.4122878411771,-9.13098333711063,-9.18320367935401,5.73192439820597,6.44444840116403,-14.1109679534804,-14.1064394905953,20.2206421199148,-13.7494710561074,-6.36431646000443,9.35776357660842,-13.6664674333262,-20.0419193201613,-1.71550722958381,6.41311915216433,19.8945163239891,24.5881685878917,5.49338444813891,-4.08189925473215,-10.5483131180405,-5.80420979091575
"55",-7.9160097460021,11.663767723885,-0.517252434139977,11.0868425528829,-7.00783858298175,13.3333076399479,-1.94792458973085,1.97433701105509,-8.0350852171645,-3.0741037450782,20.3589651955091,-17.6709962299747,-5.03654835590149,15.1997961198659,-8.07529937317415,-7.19094584432067,8.52036653563417,-6.48143149034951,9.10847766632104,14.0405976332811,9.63114330553872,10.3437200822041,11.7565350415701,-4.06935669282407,-15.0521352418116,-17.2205641857085,-14.1531759585856,-7.06062377082721,-4.35043754669972,-13.7381783963612,19.2254095045891,-8.11962744133119,-4.52853864453149,-10.078119252545,7.47600384155659,11.9985000179152,6.91232180316487,-16.8014071235322,-16.25769517857,-10.3340443244978,-18.2812459850864,-13.2997448564561,7.68397979159544,-4.45571608050668,3.73679932395606,0.471156389610093,10.9961717207408,-5.9992169372072,-15.7003673206336,15.2397600059643
"56",7.05452249281758,3.07535797151807,-9.25111707958893,8.37710331182341,-1.59409213364745,-4.31830461220832,-1.10181463197719,10.539577122747,2.42998993637499,9.90214849085448,-5.19106863545857,-8.73893642433894,-2.63599573525721,15.1570215449762,14.1071592861959,0.0228844391238666,0.0535236263786585,7.21221334932337,-15.7199330905214,-3.67415181323018,-10.9303180727283,11.2022486890553,-8.37284658877046,-8.48326998811028,-4.13343322115055,7.71331251482509,9.57541551808022,12.2286496677715,-12.2055030781483,-11.3886753346442,-7.01676262262892,-15.2345116606572,9.85484762803188,18.1574913060108,-2.45368273210756,1.73340841251151,-14.7904541917664,-6.04933889733694,-4.33603135862433,23.7351131049323,-8.90729992369404,2.55398568938234,16.0737219798835,-2.45971913769308,-12.2792047645627,10.8444382987835,-0.758635149126699,-4.53389549325076,-5.13542465450053,0.866821144581108
"57",13.0013113370601,17.2179795230851,-19.8205938298037,-30.2434492243366,-8.46451132830646,9.86712601708276,-21.9174614869138,11.3333237151632,-3.67935131058227,14.8058262834651,-0.066722181147757,-25.1344851474237,-5.08555525648272,-12.3929572607046,1.83964226718816,-20.2895555769065,-1.9765548056066,-15.3781253928976,-6.01204952237272,-25.7873435311327,-9.98450095089356,-35.9026445748934,-19.2129402422069,-7.43222137782224,-3.96788372036791,-12.6500310815084,-16.7634316072883,-1.21452893310089,28.8342713542134,-21.3533581595799,-4.4066516437037,-8.73484380788434,-0.965343813798763,-25.4421417286856,21.545983657766,-5.33709782893919,8.5593377276449,3.33870484416874,-24.1368049385805,-1.4354637858404,-3.86772203233134,-3.91948826860201,10.6504647059696,-8.74278504029129,3.1151485183575,15.5466718073533,-12.3351754657107,-1.34673938156521,16.6312116220377,9.05858404756382
"58",-10.2707180814733,1.15628139843262,-9.85567926226701,2.66066372456406,8.11624040761495,1.64953017954714,-2.42830238495918,0.58633217323979,4.16280352093844,-6.75932555966119,0.960530557955894,-6.00204985029225,22.3170680012456,-7.99157412219807,13.410894210234,33.7545747480766,-21.4829840034124,-11.5423704928856,12.3366941791153,13.5618115234999,-21.2741178979564,-19.4676089700104,29.1398990864599,8.54320386828166,-13.5181402019979,14.8921542863932,-4.61173015885612,5.8733812728133,6.82823818224992,15.9479628453512,-4.78827282994799,13.7806949029213,-5.12134178568759,-2.82439590558675,10.3870262224541,-5.68871376344829,-5.1142940181587,14.307924170414,-22.8091930417525,20.3992142933841,-15.1792225211962,8.44616352355493,-7.3544071311783,6.03515581964723,-2.54020157062888,-9.64759321896622,0.708926487462729,-6.86668817701689,6.29776379929774,1.13406458401413
"59",-2.02423078766777,-1.87067454198736,-4.66943491778023,-7.67522095252101,-19.806774073703,10.1900876272768,-6.49891840886822,9.74255349616185,-22.5078042213565,-2.18673418051576,3.87982295382609,39.6403863227437,-11.7033169627218,11.0813534252125,-18.0292221835625,5.20223465615627,3.82014456829885,-12.9411086386457,3.56646647852113,-7.65873188245318,0.146814429460361,-14.8947197356888,-9.29229689311317,-15.9443168375701,-14.1143465199397,9.31851253857747,4.62495213466141,4.69969393315683,8.12734208054006,0.778988476054122,3.41612776016526,9.00949950922903,3.44437591300927,6.32073888070194,2.05724707797355,16.9676885445867,-1.1203224020139,-2.90032332150212,-0.505701543323364,-10.1553368450168,9.43445680247643,6.56804625618651,10.8172071322953,9.76542192055667,9.72737807578721,8.14146549140679,3.1530687578617,-12.1187366106653,-6.00150344062585,2.33694511564163
"60",-6.21941213474312,1.42867700926897,3.80245799224163,1.56604341330382,-2.00707895252553,12.6861236321614,33.5254025328178,10.1820296623321,3.16972655150979,-4.1064333667676,-7.45497592320483,23.7908639346731,-9.50506976510973,-16.4140350505336,-5.004653993645,17.8507919126011,-5.92760855437085,8.59438971990152,-12.8317142520746,-3.32299270092139,2.50510118712006,2.59874492176084,-15.6599711787074,3.76050635886774,-5.25964527570423,14.3627433656027,-11.0590806116822,9.79702154772895,-13.1172182281778,16.4389666255834,8.04593461770654,-19.6218887924061,7.08641225629033,5.77113838165232,-5.27378061910291,-6.43027557490571,-12.9693374989271,1.15033868912249,-1.0610950285434,-6.69468563886276,-3.42405129085183,20.5652107802529,11.4403388209325,9.43509478410896,-21.1183381919593,-4.99387877230393,22.816647873415,-3.96937330785049,5.96990638714025,-8.76207774301664
